time,offset
29661937,-1279
32901797,-564
36010442,-682
39095895,-625
42338149,-609
45453170,-617
48688235,-650
51800302,-622
54890183,-628
58140818,-588
61242040,-677
64474615,-652
67578484,-553
70691912,-586
73934642,-636
77027615,-669
80274195,-564
83383051,-577
86477950,-646
89718462,-670
92817567,-506
96075269,-696
99171894,-588
102412366,-611
105510351,-538
108613397,-685
111861642,-587
114966371,-631
118217684,-534
121312793,-601
124400401,-559
127654251,-700
130749394,-569
133993712,-561
137103944,-636
140345404,-525
143443999,-636
146693307,-610
149800119,-447
153048780,-775
156151631,-585
159391684,-530
162489139,-603
165580965,-619
168828912,-552
171923581,-568
175179565,-686
178281116,-561
181392934,-587
184624713,-535
187742438,-595
190967473,-607
194073015,-512
203491103,-1781
206740948,-552
209842099,-636
213091145,-598
216186364,-570
219423443,-617
222528658,-497
225792175,-572
228876063,-655
231972439,-527
235235012,-538
238312909,-636
241563746,-617
244668909,-476
247909474,-672
251007495,-532
254104775,-570
257371404,-578
260460296,-583
263699803,-602
266802333,-488
270060232,-601
273151443,-643
276395002,-502
279496315,-621
282594722,-540
285837450,-598
288935398,-563
292198955,-560
295282493,-589
298388011,-623
301644416,-499
304743038,-635
307988176,-514
311090307,-556
314326835,-695
317431462,-547
320680502,-607
323779946,-488
326882486,-612
330119770,-505
333232635,-579
336462416,-578
339560412,-621
342817232,-528
345908495,-666
349019084,-517
352260928,-563
355357311,-578
358621869,-648
361705629,-480
364958679,-580
368059009,-602
371150731,-531
374393094,-423
377505394,-742
380755646,-588
383844530,-503
387101945,-638
390197175,-531
393299444,-517
396538498,-678
399640725,-487
402893044,-645
405981798,-479
409235440,-609
412350483,-583
415582461,-585
418683431,-567
421778926,-450
425042335,-616
428135469,-518
431379686,-587
434479012,-550
437736911,-595
440827046,-631
444078275,-576
447172871,-526
450413474,-617
453524558,-200
456619698,-906
459869219,-486
462964047,-642
466225676,-527
469309190,-539
472563440,-573
475660321,-618
478760838,-548
482004038,-548
485113745,-530
488346610,-660
491454636,-541
494697920,-509
497801790,-563
501051710,-614
504150450,-473
507254452,-581
510498884,-577
513586538,-565
516840069,-618
519937261,-534
523182304,-520
526293541,-542
529537601,-847
532626282,-367
535873432,-507
538985214,-636
542227401,-497
545331495,-552
548580289,-609
551675804,-550
554782575,-561
558020616,-514
561111697,-618
564371507,-558
567473109,-561
570570933,-534
573806571,-503
576915491,-614
580157480,-510
583260621,-567
586345798,-540
589603424,-569
592707928,-589
595939795,-601
599042782,-448
602302191,-578
605405196,-557
608486671,-596
611734076,-568
614844736,-493
618097796,-570
621187406,-562
624434815,-624
627545911,-465
630777074,-600
633883239,-528
637117015,-532
640222311,-584
643470293,-649
646569059,-569
649832181,-478
652923698,-559
656025544,-565
659272787,-595
662378697,-490
665612758,-576
668703293,-597
671958799,-577
675067882,-512
678313067,-582
681399912,-591
684500446,-556
687747922,-510
690841894,-503
694109985,-611
697195960,-570
700437111,-569
703550334,-545
706794098,-564
709887170,-494
713129597,-628
716225176,-536
719327582,-525
722589990,-622
725682128,-494
728934549,-588
732024589,-539
735278841,-618
738383227,-494
741614036,-642
744714329,-468
747973037,-576
751069240,-570
754173563,-513
757424114,-573
760509046,-537
763756301,-592
766858559,-563
770115265,-560
773207940,-7196
776447564,6036
779554755,-464
782797687,-579
785897597,-531
789006421,-591
792258947,-616
795340935,-465
798590325,-560
801690707,-515
804949096,-667
808036408,-468
811288791,-643
814391880,-473
817623322,-590
820723807,-567
823829604,-551
827075618,-567
830186384,-436
833411869,-676
836516597,-522
839768192,-559
842865836,-562
845977186,-470
849212094,-575
852316708,-540
855564383,-537
858656257,-624
861913558,-514
865010494,-604
868109724,-499
871359244,-531
874453507,-560
877703562,-544
880795518,-534
884043985,-636
887157850,-449
890245892,-544
893492369,-603
896589338,-511
899840294,-613
902940290,-524
906042286,-597
909279365,-507
912380036,-566
915643071,-552
918725976,-603
921985505,-489
925076862,-546
928320733,-638
931431521,-444
934530743,-590
937782671,-578
940869055,-564
