time,offset
42421876,5205
45526228,2603
48768947,2830
51867031,2602
55114357,2886
58216789,2685
61318298,2619
64560564,2915
67674904,2663
70759210,2727
74018785,2852
77165119,2719
80363695,2911
83470216,2687
86708379,2956
89800264,2751
92989808,2745
96157749,2846
99257217,2795
102513257,2924
105603842,2783
108845851,2841
111954630,2892
115194897,2840
118289920,2831
121539234,2901
124644752,2855
127746288,2793
130995302,2962
134088265,2787
137342729,3006
140448334,2827
143540243,2808
146784140,3010
149891945,2815
153139307,3019
156237518,2858
159479256,2981
162568037,2904
165826516,3025
168926226,2863
172025119,2744
175263264,3028
178371165,2862
181616785,2934
184717965,2817
187964309,3007
191058183,2767
194304139,3044
197402339,2718
200514336,2847
203756689,2957
206851943,2794
210099472,2977
213209559,2770
216304904,2895
219546431,2863
222641265,2845
225759478,2831
228995235,2857
232104018,2876
235348330,2865
238438184,2863
241699850,2992
244790434,2821
247890727,2883
251131839,3084
254225810,2786
257488648,3043
260590956,2944
263691662,2940
266919530,3061
270020945,2906
273262492,3175
276375921,2959
279616993,3147
282722198,2918
285980844,3126
289073686,2993
292177072,3030
295411297,3040
298507838,3011
301749005,3155
304860528,2941
307947663,2906
311202060,3127
314317722,2968
317564626,3050
320643986,2900
323899699,2966
326997529,2896
330106326,2941
333350351,2980
336455610,2807
339690644,3066
342791870,2743
346055849,3044
349142166,2770
352230914,2856
355489829,3011
358585223,2902
361830217,2992
364936242,2968
368035012,2875
371275739,3014
374375634,2959
377620064,2991
380731978,2962
383960966,3056
387081407,2918
390180368,2956
393413251,3189
396517135,2940
399761778,3078
402862749,3042
405958458,2665
409199588,3387
412313934,2892
415563941,3129
418646825,2963
421909193,3082
425023749,2924
428251387,3009
431346607,2971
434453456,2929
437711331,2836
440796204,3175
444044076,3013
447145270,2945
450390955,3011
453498091,2895
456591576,2947
459841799,2967
462938432,2927
466192228,2946
469303834,2901
472527038,3040
475638428,2903
478727545,2871
481990638,2954
488321939,5844
491416071,2853
494655907,3054
497757675,2865
500999126,2901
504108625,2837
507202713,2923
510447582,2926
513546205,2960
516794957,2971
519890164,2860
523004124,2867
526237329,3086
529336269,2887
532586950,3050
535698949,2996
538947903,3016
542033649,3009
545285669,3127
548381135,2906
551625191,3115
554723699,2942
557970322,3194
561082599,2924
564185403,3009
567426236,3221
570531438,3010
573769541,3117
576874341,2997
580118479,3228
583207553,2990
586310743,3001
589557485,3159
592660037,2933
595906302,3139
599011140,3011
602246317,3109
605354101,3022
608616785,3102
611709398,2898
614949013,3156
618042451,3045
621142362,2808
624408900,3093
627500326,2974
630742493,3090
633848641,2932
636945622,2912
640187057,2098
643277113,3969
646538312,3040
649639806,2866
652879818,3132
655979074,2862
659230946,3023
662324865,2999
665442410,2910
668676474,3003
671783998,2612
675019128,3270
678125271,2918
681368409,3070
684463154,2880
687725104,3004
690821849,2923
693917378,2806
697175942,3022
700270597,2973
703519329,2961
706615082,2817
709710398,2876
712954143,3115
716047344,2873
719302129,2959
722401783,2909
725663305,2973
728760338,2896
731849650,2797
735094176,3063
738203528,2888
741459532,2972
744532423,2832
747799988,3037
750897156,2905
753981686,2857
757257731,3148
760343661,2896
763587487,3000
766674899,3023
769927003,3069
773028415,2976
776286480,3047
779378144,3040
782464180,2964
785719363,3113
788814605,2961
792071613,3182
795169010,2994
798425818,3223
801519618,3030
804615046,2991
807858584,3230
810953672,3018
814211963,3221
817304411,3079
820547548,3398
823659226,2803
826907652,3213
830001683,3025
833107994,3005
836340848,3130
839444444,2967
842691744,3238
845793077,2992
849033504,3056
852150275,3052
855392570,3098
858486677,2976
864826267,6078
867938456,2973
871173749,3131
874293802,2910
877539031,3146
880622271,2995
883735946,2948
886970785,3034
890082454,2926
893323877,3069
896422962,3024
899667497,3090
902771976,2834
905872384,2967
909109754,3111
912213601,2930
915467635,2999
918549494,3005
921817588,3003
924907510,2951
928001617,2976
931267898,3011
934357123,2949
937593655,3045
940691188,2923
943945228,3111
947052675,2827
950144398,2923
953393429,3057
