time,offset
47340595,-1172
50561659,-672
53622721,-485
57000649,-595
60264057,-668
63380350,-602
66603593,-485
69729261,-663
72977958,-525
76102645,-564
79329188,-589
82558025,-598
85937518,-589
89062756,-502
92351388,-654
95548294,-551
98768766,-567
101861654,-538
105121620,-588
108222481,-508
111360497,-566
114679137,-595
117672913,-504
120998728,-598
124221756,-609
127528774,-538
130576865,-651
133894660,-585
137169368,-595
140442974,-548
143659757,-529
146757332,-572
149861016,-570
153101809,-532
156223358,-610
159327314,-488
162565703,-568
165922560,-567
168952390,-483
172170639,-615
175226297,-553
178631142,-588
181878646,-587
185053954,-440
188065529,-521
191538427,-565
194429479,-560
197519206,-551
200744675,-553
204033538,-500
207408202,-597
210651637,-518
213953543,-579
217367030,-636
220707787,-481
223917647,-576
227016542,-585
230178595,-503
233378037,-529
236611340,-485
239977382,-625
243180521,-546
246208532,-437
249534039,-531
252696488,-618
256019548,-449
259211327,-596
262451900,-584
265592434,-673
268866988,-381
271898923,-431
275129147,-619
278228482,-420
281533789,-583
284743253,-500
287976476,-601
291078454,-535
294324751,-441
297432153,-597
300675804,-503
303886175,-492
306895827,-529
310122431,-521
313214394,-576
316480994,-452
319566848,-579
322832333,-543
326048303,-553
329201959,-461
332443500,-481
335490413,-573
338736047,-509
342012309,-577
345345890,-517
348346041,-493
351537080,-579
354677756,-525
357785813,-479
360913836,-495
364130646,-496
367400367,-562
370712561,-542
373913724,-501
376964769,-519
380062164,-538
383308899,-765
386737981,-381
389830240,-428
393124130,-572
396154966,-508
399251750,-513
402511601,-518
405626362,-487
408861641,-538
412103136,-631
415427994,-457
418438275,-547
421692836,-495
424826744,-504
428103674,-580
431143106,-546
434377477,-450
437526153,-557
440811660,-586
443827391,-506
447068086,-450
450182176,-582
453552901,-445
456679524,-553
459844295,-439
463067147,-625
466255913,-506
469531036,-607
472604978,-470
475962816,-546
478958878,-466
482339804,-634
485447776,-443
488693682,-573
491801607,-454
495039159,-611
498149307,-456
501248365,-551
504505280,-453
507630442,-596
510986447,-537
514091727,-524
517275377,-474
520425620,-499
523623779,-514
526634493,-592
529877245,-437
532996153,-526
536227985,-555
539482508,-580
542735498,-543
546026007,-527
549212938,-466
552305129,-535
555752398,-509
558910081,-515
561906699,-567
565152626,-508
568396020,-522
571666371,-491
574758410,-599
578058649,-532
581080905,-442
584346475,-609
587463452,-477
590708740,-474
593787259,-590
597037762,-477
600298339,-540
603382208,-464
606701659,-590
609781734,-485
613033002,-550
616281967,-478
619323658,-553
622568457,-575
625660461,-470
629001254,-517
632010800,-535
635266748,-551
638629880,-496
641681224,-523
644996185,-465
648112364,-596
651403439,-538
654608280,-437
657861642,-530
660950628,-551
664351075,-550
667435024,-484
670718229,-513
673903431,-521
677034715,-543
680143952,-550
683396182,-508
686476511,-521
689754063,-428
693002856,-602
696231508,-468
699344039,-514
702571808,-597
705874970,-527
708963956,-433
712165948,-553
715404829,-478
718508260,-520
721752896,-533
724859561,-540
727955315,-484
731208552,-489
734480165,-599
737700580,-442
740979189,-528
744035656,-537
747211713,-577
750372250,-494
753506179,-479
756730451,-577
759976401,-456
763182263,-499
766325359,-600
769834230,-542
772803960,-519
776046570,-462
779152253,-566
782555256,-525
785682771,-463
2407259,-25575590371
8681578,-1189
11765199,-517
15028657,-578
18284322,-478
21492141,-455
24687009,-581
27918586,-544
30975249,-483
34270598,-513
37600848,-607
40735097,-500
43948262,-527
47072306,-468
50304664,-526
53672755,-567
56651537,-453
59891910,-552
62989975,-542
66420504,-510
69326594,-510
72579986,-455
75986488,-557
78935786,-481
82257155,-540
85269362,-511
88369076,-513
91635906,-519
94918285,-621
98201906,-437
101213550,-600
104446828,-509
107590245,-542
110838443,-455
114042584,-552
117363908,-572
120398540,-464
123698492,-499
126994285,-543
129985885,-494
133231794,-539
136345946,-503
139624814,-584
142860099,-582
145996612,-442
149286887,-603
152271112,-496
155524911,-525
158796604,-527
161864830,-435
165125009,-609
168204622,-418
171317835,-524
174559942,-579
177801196,-562
180977406,-411
184284337,-558
187268092,-575
190401055,-435
193602869,-565
196986694,-556
200237161,-524
203429561,-542
206766162,-508
209855293,-509
213131290,-513
216323237,-578
219432819,-475
222533901,-505
225658110,-539
229017398,-582
232124946,-514
235368140,-517
238612375,-472
241722484,-546
244989086,-575
248103117,-407
251328264,-595
254723851,-464
257817537,-630
261284146,-441
264440142,-588
267547342,-491
270812081,-549
274049593,-508
277129308,-558
280396987,-498
283473639,-485
286783612,-764
289845594,-363
293098807,-442
296330048,-618
299441650,-475
302917292,-561
305949962,-526
309260167,-494
312272921,-508
315509603,-534
318611011,-479
321858828,-585
325288865,-474
328203965,-600
331429636,-517
334620882,-503
337801220,-493
340918097,-491
344187233,-589
347314094,-460
350483825,-570
353593996,-538
356692779,-441
359961503,-591
363323899,-500
366604959,-614
369683736,-447
372786832,-526
376016601,-490
379259177,-615
382384118,-499
385628128,-502
388887292,-543
392105112,-457
395211873,-575
398314584,-473
401570562,-498
404798850,-535
408020378,-585
411153515,-510
414388016,-541
417643888,-536
420780181,-455
424134179,-514
427236751,-541
430481207,-553
433822362,-468
436977992,-546
440163049,-540
443326237,-478
446423802,-561
449669022,-466
453011691,-526
456199388,-566
459375216,-469
